tidymodels
…
predict(titanic_logr, test_prepped)

## # A tibble: 418 x 1
##    .pred_class
##    <fct>      
##  1 0          
##  2 0          
##  3 0          
##  4 0          
##  5 1          
##  6 0          
##  7 1          
##  8 0          
##  9 1          
## 10 0          
## #  with 408 more rows
…
